Project2_DATA607_Chunjie_Nan
…
According to the sorting, the CUNY Manhattan Community College receives the most TAP aid every year among the CUNY schools.

cuny%>%
  filter(TAP.Sector.Group=='1-CUNY SR')%>%
  group_by(TAP.College.Name)%>%
  arrange(desc(TAP.Fall.Headcount))

## # A tibble: 656 x 9
## # Groups:   TAP.College.Name [24]
##    Academic.Year TAP.College.Code Federal.School.Code Level TAP.Level.of.Study
##            <int>            <int>               <int> <chr> <chr>             
##  1          2018             1413                2689 U     4 yr Undergrad    
##  2          2019             1413                2689 U     4 yr Undergrad    
##  3          2017             1413                2689 U     4 yr Undergrad    
##  4          2019             1414                2693 U     4 yr Undergrad    
##  5          2018             1414                2693 U     4 yr Undergrad    
##  6          2016             1413                2689 U     4 yr Undergrad    
##  7          2015             1413                2689 U     4 yr Undergrad    
##  8          2017             1414                2693 U     4 yr Undergrad    
##  9          2017             1416                2690 U     4 yr Undergrad    
## 10          2013             1414                2693 U     4 yr Undergrad    
## #  with 646 more rows, and 4 more variables: TAP.College.Name <chr>,
## #   Sector.Type <chr>, TAP.Sector.Group <chr>, TAP.Fall.Headcount <int>
…
